%YAML 1.1
%TAG !u! tag:unity3d.com,2011:
--- !u!21 &2100000
Material:
  serializedVersion: 6
  m_ObjectHideFlags: 0
  m_PrefabParentObject: {fileID: 0}
  m_PrefabInternal: {fileID: 0}
  m_Name: DungeonWall2
  m_Shader: {fileID: 4, guid: 0000000000000000f000000000000000, type: 0}
  m_ShaderKeywords: 
  m_LightmapFlags: 4
  m_EnableInstancingVariants: 1
  m_CustomRenderQueue: -1
  stringTagMap: {}
  disabledShaderPasses: []
  m_SavedProperties:
    serializedVersion: 3
    m_TexEnvs:
    - _BumpMap:
        m_Texture: {fileID: 2800000, guid: d7ee75fea103b0545a4cd833038f8096, type: 3}
        m_Scale: {x: 12, y: 1}
        m_Offset: {x: 0, y: 0}
    - _MainTex:
        m_Texture: {fileID: 2800000, guid: 6d04ba2c3fdc8f247abbf0b22619b79b, type: 3}
        m_Scale: {x: 12, y: 1}
        m_Offset: {x: 0, y: 0}
    m_Floats:
    - _Shininess: 0.030000003
    m_Colors:
    - _Color: {r: 0.85294116, g: 0.85294116, b: 0.85294116, a: 1}
    - _SpecColor: {r: 0.30882353, g: 0.30882353, b: 0.30882353, a: 1}
