%YAML 1.1
%TAG !u! tag:unity3d.com,2011:
--- !u!21 &2100000
Material:
  serializedVersion: 6
  m_ObjectHideFlags: 0
  m_PrefabParentObject: {fileID: 0}
  m_PrefabInternal: {fileID: 0}
  m_Name: StoneBrickFloor
  m_Shader: {fileID: 4, guid: 0000000000000000f000000000000000, type: 0}
  m_ShaderKeywords: 
  m_LightmapFlags: 4
  m_EnableInstancingVariants: 0
  m_CustomRenderQueue: -1
  stringTagMap: {}
  disabledShaderPasses: []
  m_SavedProperties:
    serializedVersion: 3
    m_TexEnvs:
    - _BumpMap:
        m_Texture: {fileID: 2800000, guid: 009fe21ca683a3349be4368273c401aa, type: 3}
        m_Scale: {x: 12, y: 1}
        m_Offset: {x: 0, y: 0}
    - _MainTex:
        m_Texture: {fileID: 2800000, guid: f8bc87ee11e3475448097cdc20e86227, type: 3}
        m_Scale: {x: 12, y: 1}
        m_Offset: {x: 0, y: 0}
    m_Floats:
    - _Shininess: 0.07454052
    m_Colors:
    - _Color: {r: 0.89705884, g: 0.89705884, b: 0.89705884, a: 1}
    - _SpecColor: {r: 0.5147059, g: 0.5147059, b: 0.5147059, a: 1}
