%YAML 1.1
%TAG !u! tag:unity3d.com,2011:
--- !u!29 &1
OcclusionCullingSettings:
  m_ObjectHideFlags: 0
  serializedVersion: 2
  m_OcclusionBakeSettings:
    smallestOccluder: 5
    smallestHole: 0.25
    backfaceThreshold: 100
  m_SceneGUID: 00000000000000000000000000000000
  m_OcclusionCullingData: {fileID: 0}
--- !u!104 &2
RenderSettings:
  m_ObjectHideFlags: 0
  serializedVersion: 8
  m_Fog: 1
  m_FogColor: {r: 0.3152033, g: 0.42073587, b: 0.8088235, a: 1}
  m_FogMode: 1
  m_FogDensity: 0.01
  m_LinearFogStart: 0
  m_LinearFogEnd: 100
  m_AmbientSkyColor: {r: 0.31639272, g: 0.45248184, b: 0.5661765, a: 1}
  m_AmbientEquatorColor: {r: 0.2, g: 0.2, b: 0.2, a: 1}
  m_AmbientGroundColor: {r: 0.2, g: 0.2, b: 0.2, a: 1}
  m_AmbientIntensity: 1
  m_AmbientMode: 3
  m_SubtractiveShadowColor: {r: 0.42, g: 0.478, b: 0.627, a: 1}
  m_SkyboxMaterial: {fileID: 0}
  m_HaloStrength: 0.5
  m_FlareStrength: 1
  m_FlareFadeSpeed: 3
  m_HaloTexture: {fileID: 0}
  m_SpotCookie: {fileID: 10001, guid: 0000000000000000e000000000000000, type: 0}
  m_DefaultReflectionMode: 0
  m_DefaultReflectionResolution: 128
  m_ReflectionBounces: 1
  m_ReflectionIntensity: 1
  m_CustomReflection: {fileID: 0}
  m_Sun: {fileID: 0}
  m_IndirectSpecularColor: {r: 0, g: 0, b: 0, a: 1}
--- !u!157 &4
LightmapSettings:
  m_ObjectHideFlags: 0
  serializedVersion: 9
  m_GIWorkflowMode: 1
  m_GISettings:
    serializedVersion: 2
    m_BounceScale: 1
    m_IndirectOutputScale: 1
    m_AlbedoBoost: 1
    m_TemporalCoherenceThreshold: 1
    m_EnvironmentLightingMode: 0
    m_EnableBakedLightmaps: 0
    m_EnableRealtimeLightmaps: 0
  m_LightmapEditorSettings:
    serializedVersion: 8
    m_Resolution: 1
    m_BakeResolution: 50
    m_TextureWidth: 1024
    m_TextureHeight: 1024
    m_AO: 0
    m_AOMaxDistance: 1
    m_CompAOExponent: 0
    m_CompAOExponentDirect: 0
    m_Padding: 2
    m_LightmapParameters: {fileID: 0}
    m_LightmapsBakeMode: 1
    m_TextureCompression: 0
    m_FinalGather: 0
    m_FinalGatherFiltering: 1
    m_FinalGatherRayCount: 1024
    m_ReflectionCompression: 2
    m_MixedBakeMode: 1
    m_BakeBackend: 0
    m_PVRSampling: 1
    m_PVRDirectSampleCount: 32
    m_PVRSampleCount: 500
    m_PVRBounces: 2
    m_PVRFiltering: 0
    m_PVRFilteringMode: 1
    m_PVRCulling: 1
    m_PVRFilteringGaussRadiusDirect: 1
    m_PVRFilteringGaussRadiusIndirect: 5
    m_PVRFilteringGaussRadiusAO: 2
    m_PVRFilteringAtrousColorSigma: 1
    m_PVRFilteringAtrousNormalSigma: 1
    m_PVRFilteringAtrousPositionSigma: 1
  m_LightingDataAsset: {fileID: 0}
  m_ShadowMaskMode: 2
--- !u!196 &5
NavMeshSettings:
  serializedVersion: 2
  m_ObjectHideFlags: 0
  m_BuildSettings:
    serializedVersion: 2
    agentTypeID: 0
    agentRadius: 0.5
    agentHeight: 2
    agentSlope: 45
    agentClimb: 0.4
    ledgeDropHeight: 0
    maxJumpAcrossDistance: 0
    minRegionArea: 2
    manualCellSize: 0
    cellSize: 0.16666666
    manualTileSize: 0
    tileSize: 256
    accuratePlacement: 0
  m_NavMeshData: {fileID: 0}
--- !u!1 &19204038
GameObject:
  m_ObjectHideFlags: 0
  m_PrefabParentObject: {fileID: 0}
  m_PrefabInternal: {fileID: 0}
  serializedVersion: 5
  m_Component:
  - component: {fileID: 19204040}
  - component: {fileID: 19204039}
  m_Layer: 0
  m_Name: Directional light
  m_TagString: Untagged
  m_Icon: {fileID: 0}
  m_NavMeshLayer: 0
  m_StaticEditorFlags: 0
  m_IsActive: 1
--- !u!108 &19204039
Light:
  m_ObjectHideFlags: 0
  m_PrefabParentObject: {fileID: 0}
  m_PrefabInternal: {fileID: 0}
  m_GameObject: {fileID: 19204038}
  m_Enabled: 1
  serializedVersion: 8
  m_Type: 1
  m_Color: {r: 0.35532007, g: 0.6584865, b: 0.9117647, a: 1}
  m_Intensity: 2.43
  m_Range: 10
  m_SpotAngle: 30
  m_CookieSize: 10
  m_Shadows:
    m_Type: 0
    m_Resolution: -1
    m_CustomResolution: -1
    m_Strength: 1
    m_Bias: 0.05
    m_NormalBias: 0.4
    m_NearPlane: 0.2
  m_Cookie: {fileID: 0}
  m_DrawHalo: 0
  m_Flare: {fileID: 0}
  m_RenderMode: 0
  m_CullingMask:
    serializedVersion: 2
    m_Bits: 4294967295
  m_Lightmapping: 4
  m_AreaSize: {x: 1, y: 1}
  m_BounceIntensity: 1.27
  m_ColorTemperature: 6570
  m_UseColorTemperature: 0
  m_ShadowRadius: 0
  m_ShadowAngle: 0
--- !u!4 &19204040
Transform:
  m_ObjectHideFlags: 0
  m_PrefabParentObject: {fileID: 0}
  m_PrefabInternal: {fileID: 0}
  m_GameObject: {fileID: 19204038}
  m_LocalRotation: {x: 0.3917379, y: -0.40873125, z: 0.8164007, w: -0.1138868}
  m_LocalPosition: {x: -17.062521, y: 17.00046, z: 17.330545}
  m_LocalScale: {x: 1, y: 1, z: 1}
  m_Children: []
  m_Father: {fileID: 0}
  m_RootOrder: 0
  m_LocalEulerAnglesHint: {x: 0, y: 0, z: 0}
--- !u!1 &232031956
GameObject:
  m_ObjectHideFlags: 0
  m_PrefabParentObject: {fileID: 143578, guid: 0b8c2c3ec5a891d4ba1aa54bebe7916c, type: 2}
  m_PrefabInternal: {fileID: 793403602}
  serializedVersion: 5
  m_Component:
  - component: {fileID: 232031960}
  - component: {fileID: 232031959}
  - component: {fileID: 232031958}
  - component: {fileID: 232031957}
  m_Layer: 0
  m_Name: Cart_Stand1
  m_TagString: Untagged
  m_Icon: {fileID: 0}
  m_NavMeshLayer: 0
  m_StaticEditorFlags: 0
  m_IsActive: 1
--- !u!65 &232031957
BoxCollider:
  m_ObjectHideFlags: 0
  m_PrefabParentObject: {fileID: 6556494, guid: 0b8c2c3ec5a891d4ba1aa54bebe7916c,
    type: 2}
  m_PrefabInternal: {fileID: 793403602}
  m_GameObject: {fileID: 232031956}
  m_Material: {fileID: 0}
  m_IsTrigger: 0
  m_Enabled: 1
  serializedVersion: 2
  m_Size: {x: 2.2123008, y: 4.420582, z: 2.057456}
  m_Center: {x: -0.00000023841858, y: 0, z: 1.028728}
--- !u!23 &232031958
MeshRenderer:
  m_ObjectHideFlags: 0
  m_PrefabParentObject: {fileID: 2359038, guid: 0b8c2c3ec5a891d4ba1aa54bebe7916c,
    type: 2}
  m_PrefabInternal: {fileID: 793403602}
  m_GameObject: {fileID: 232031956}
  m_Enabled: 1
  m_CastShadows: 1
  m_ReceiveShadows: 1
  m_MotionVectors: 1
  m_LightProbeUsage: 1
  m_ReflectionProbeUsage: 1
  m_Materials:
  - {fileID: 2100000, guid: 0b94cc099efbb534f87d708b8a7af35b, type: 2}
  m_StaticBatchInfo:
    firstSubMesh: 0
    subMeshCount: 0
  m_StaticBatchRoot: {fileID: 0}
  m_ProbeAnchor: {fileID: 0}
  m_LightProbeVolumeOverride: {fileID: 0}
  m_ScaleInLightmap: 1
  m_PreserveUVs: 0
  m_IgnoreNormalsForChartDetection: 0
  m_ImportantGI: 0
  m_SelectedEditorRenderState: 3
  m_MinimumChartSize: 4
  m_AutoUVMaxDistance: 0.5
  m_AutoUVMaxAngle: 89
  m_LightmapParameters: {fileID: 0}
  m_SortingLayerID: 0
  m_SortingLayer: 0
  m_SortingOrder: 0
--- !u!33 &232031959
MeshFilter:
  m_ObjectHideFlags: 0
  m_PrefabParentObject: {fileID: 3316048, guid: 0b8c2c3ec5a891d4ba1aa54bebe7916c,
    type: 2}
  m_PrefabInternal: {fileID: 793403602}
  m_GameObject: {fileID: 232031956}
  m_Mesh: {fileID: 4300000, guid: 77a5eaf754724744389db16ed0da57c6, type: 3}
--- !u!4 &232031960
Transform:
  m_ObjectHideFlags: 0
  m_PrefabParentObject: {fileID: 432930, guid: 0b8c2c3ec5a891d4ba1aa54bebe7916c, type: 2}
  m_PrefabInternal: {fileID: 793403602}
  m_GameObject: {fileID: 232031956}
  m_LocalRotation: {x: -0.7051103, y: 0.053098854, z: 0.05309887, w: 0.7051103}
  m_LocalPosition: {x: -13.27, y: 0, z: 10.13}
  m_LocalScale: {x: 1, y: 1, z: 1}
  m_Children: []
  m_Father: {fileID: 0}
  m_RootOrder: 3
  m_LocalEulerAnglesHint: {x: 0, y: 0, z: 0}
--- !u!1 &393601664
GameObject:
  m_ObjectHideFlags: 0
  m_PrefabParentObject: {fileID: 0}
  m_PrefabInternal: {fileID: 0}
  serializedVersion: 5
  m_Component:
  - component: {fileID: 393601666}
  - component: {fileID: 393601665}
  m_Layer: 0
  m_Name: Directional light
  m_TagString: Untagged
  m_Icon: {fileID: 0}
  m_NavMeshLayer: 0
  m_StaticEditorFlags: 0
  m_IsActive: 1
--- !u!108 &393601665
Light:
  m_ObjectHideFlags: 0
  m_PrefabParentObject: {fileID: 0}
  m_PrefabInternal: {fileID: 0}
  m_GameObject: {fileID: 393601664}
  m_Enabled: 1
  serializedVersion: 8
  m_Type: 1
  m_Color: {r: 1, g: 0.78701824, b: 0.22794116, a: 1}
  m_Intensity: 2
  m_Range: 10
  m_SpotAngle: 30
  m_CookieSize: 10
  m_Shadows:
    m_Type: 2
    m_Resolution: -1
    m_CustomResolution: -1
    m_Strength: 0.611
    m_Bias: 0
    m_NormalBias: 0
    m_NearPlane: 0.2
  m_Cookie: {fileID: 0}
  m_DrawHalo: 0
  m_Flare: {fileID: 0}
  m_RenderMode: 0
  m_CullingMask:
    serializedVersion: 2
    m_Bits: 4294967295
  m_Lightmapping: 4
  m_AreaSize: {x: 1, y: 1}
  m_BounceIntensity: 1
  m_ColorTemperature: 6570
  m_UseColorTemperature: 0
  m_ShadowRadius: 0
  m_ShadowAngle: 0
--- !u!4 &393601666
Transform:
  m_ObjectHideFlags: 0
  m_PrefabParentObject: {fileID: 0}
  m_PrefabInternal: {fileID: 0}
  m_GameObject: {fileID: 393601664}
  m_LocalRotation: {x: -0.9054741, y: 0.27623522, z: 0.009218678, w: -0.3220648}
  m_LocalPosition: {x: -15.567749, y: 17.00046, z: 17.569849}
  m_LocalScale: {x: 1, y: 1, z: 1}
  m_Children: []
  m_Father: {fileID: 0}
  m_RootOrder: 1
  m_LocalEulerAnglesHint: {x: 0, y: 0, z: 0}
--- !u!1001 &793403602
Prefab:
  m_ObjectHideFlags: 0
  serializedVersion: 2
  m_Modification:
    m_TransformParent: {fileID: 0}
    m_Modifications:
    - target: {fileID: 432930, guid: 0b8c2c3ec5a891d4ba1aa54bebe7916c, type: 2}
      propertyPath: m_LocalPosition.x
      value: -13.2700005
      objectReference: {fileID: 0}
    - target: {fileID: 432930, guid: 0b8c2c3ec5a891d4ba1aa54bebe7916c, type: 2}
      propertyPath: m_LocalPosition.y
      value: 0
      objectReference: {fileID: 0}
    - target: {fileID: 432930, guid: 0b8c2c3ec5a891d4ba1aa54bebe7916c, type: 2}
      propertyPath: m_LocalPosition.z
      value: 10.1300001
      objectReference: {fileID: 0}
    - target: {fileID: 432930, guid: 0b8c2c3ec5a891d4ba1aa54bebe7916c, type: 2}
      propertyPath: m_LocalRotation.x
      value: -.705110312
      objectReference: {fileID: 0}
    - target: {fileID: 432930, guid: 0b8c2c3ec5a891d4ba1aa54bebe7916c, type: 2}
      propertyPath: m_LocalRotation.y
      value: .0530988537
      objectReference: {fileID: 0}
    - target: {fileID: 432930, guid: 0b8c2c3ec5a891d4ba1aa54bebe7916c, type: 2}
      propertyPath: m_LocalRotation.z
      value: .0530988686
      objectReference: {fileID: 0}
    - target: {fileID: 432930, guid: 0b8c2c3ec5a891d4ba1aa54bebe7916c, type: 2}
      propertyPath: m_LocalRotation.w
      value: .705110312
      objectReference: {fileID: 0}
    - target: {fileID: 432930, guid: 0b8c2c3ec5a891d4ba1aa54bebe7916c, type: 2}
      propertyPath: m_RootOrder
      value: 3
      objectReference: {fileID: 0}
    m_RemovedComponents: []
  m_ParentPrefab: {fileID: 100100000, guid: 0b8c2c3ec5a891d4ba1aa54bebe7916c, type: 2}
  m_RootGameObject: {fileID: 232031956}
  m_IsPrefabParent: 0
--- !u!1 &1391103810
GameObject:
  m_ObjectHideFlags: 0
  m_PrefabParentObject: {fileID: 0}
  m_PrefabInternal: {fileID: 0}
  serializedVersion: 5
  m_Component:
  - component: {fileID: 1391103814}
  - component: {fileID: 1391103813}
  - component: {fileID: 1391103812}
  - component: {fileID: 1391103811}
  m_Layer: 0
  m_Name: Plane
  m_TagString: Untagged
  m_Icon: {fileID: 0}
  m_NavMeshLayer: 0
  m_StaticEditorFlags: 0
  m_IsActive: 1
--- !u!23 &1391103811
MeshRenderer:
  m_ObjectHideFlags: 0
  m_PrefabParentObject: {fileID: 0}
  m_PrefabInternal: {fileID: 0}
  m_GameObject: {fileID: 1391103810}
  m_Enabled: 1
  m_CastShadows: 1
  m_ReceiveShadows: 1
  m_MotionVectors: 1
  m_LightProbeUsage: 1
  m_ReflectionProbeUsage: 1
  m_Materials:
  - {fileID: 2100000, guid: 4bca49f34e048c941aa99e30f102bbfe, type: 2}
  m_StaticBatchInfo:
    firstSubMesh: 0
    subMeshCount: 0
  m_StaticBatchRoot: {fileID: 0}
  m_ProbeAnchor: {fileID: 0}
  m_LightProbeVolumeOverride: {fileID: 0}
  m_ScaleInLightmap: 1
  m_PreserveUVs: 1
  m_IgnoreNormalsForChartDetection: 0
  m_ImportantGI: 0
  m_SelectedEditorRenderState: 3
  m_MinimumChartSize: 4
  m_AutoUVMaxDistance: 0.5
  m_AutoUVMaxAngle: 89
  m_LightmapParameters: {fileID: 0}
  m_SortingLayerID: 0
  m_SortingLayer: 0
  m_SortingOrder: 0
--- !u!64 &1391103812
MeshCollider:
  m_ObjectHideFlags: 0
  m_PrefabParentObject: {fileID: 0}
  m_PrefabInternal: {fileID: 0}
  m_GameObject: {fileID: 1391103810}
  m_Material: {fileID: 0}
  m_IsTrigger: 0
  m_Enabled: 1
  serializedVersion: 2
  m_Convex: 0
  m_InflateMesh: 0
  m_SkinWidth: 0.01
  m_Mesh: {fileID: 10209, guid: 0000000000000000e000000000000000, type: 0}
--- !u!33 &1391103813
MeshFilter:
  m_ObjectHideFlags: 0
  m_PrefabParentObject: {fileID: 0}
  m_PrefabInternal: {fileID: 0}
  m_GameObject: {fileID: 1391103810}
  m_Mesh: {fileID: 10209, guid: 0000000000000000e000000000000000, type: 0}
--- !u!4 &1391103814
Transform:
  m_ObjectHideFlags: 0
  m_PrefabParentObject: {fileID: 0}
  m_PrefabInternal: {fileID: 0}
  m_GameObject: {fileID: 1391103810}
  m_LocalRotation: {x: 0, y: 0, z: 0, w: 1}
  m_LocalPosition: {x: 0, y: 0, z: 0}
  m_LocalScale: {x: 4, y: 4, z: 4}
  m_Children: []
  m_Father: {fileID: 0}
  m_RootOrder: 5
  m_LocalEulerAnglesHint: {x: 0, y: 0, z: 0}
--- !u!1 &1617336292
GameObject:
  m_ObjectHideFlags: 0
  m_PrefabParentObject: {fileID: 113750, guid: d9acbd4df2d313c4582b5840008bdd21, type: 2}
  m_PrefabInternal: {fileID: 1751167657}
  serializedVersion: 5
  m_Component:
  - component: {fileID: 1617336296}
  - component: {fileID: 1617336295}
  - component: {fileID: 1617336294}
  - component: {fileID: 1617336293}
  m_Layer: 0
  m_Name: Cart_Stand2
  m_TagString: Untagged
  m_Icon: {fileID: 0}
  m_NavMeshLayer: 0
  m_StaticEditorFlags: 0
  m_IsActive: 1
--- !u!65 &1617336293
BoxCollider:
  m_ObjectHideFlags: 0
  m_PrefabParentObject: {fileID: 6554158, guid: d9acbd4df2d313c4582b5840008bdd21,
    type: 2}
  m_PrefabInternal: {fileID: 1751167657}
  m_GameObject: {fileID: 1617336292}
  m_Material: {fileID: 0}
  m_IsTrigger: 0
  m_Enabled: 1
  serializedVersion: 2
  m_Size: {x: 2.5958447, y: 2.454097, z: 3.0534375}
  m_Center: {x: 0.0000004172325, y: 0, z: 1.5267187}
--- !u!23 &1617336294
MeshRenderer:
  m_ObjectHideFlags: 0
  m_PrefabParentObject: {fileID: 2384692, guid: d9acbd4df2d313c4582b5840008bdd21,
    type: 2}
  m_PrefabInternal: {fileID: 1751167657}
  m_GameObject: {fileID: 1617336292}
  m_Enabled: 1
  m_CastShadows: 1
  m_ReceiveShadows: 1
  m_MotionVectors: 1
  m_LightProbeUsage: 1
  m_ReflectionProbeUsage: 1
  m_Materials:
  - {fileID: 2100000, guid: 0b94cc099efbb534f87d708b8a7af35b, type: 2}
  m_StaticBatchInfo:
    firstSubMesh: 0
    subMeshCount: 0
  m_StaticBatchRoot: {fileID: 0}
  m_ProbeAnchor: {fileID: 0}
  m_LightProbeVolumeOverride: {fileID: 0}
  m_ScaleInLightmap: 1
  m_PreserveUVs: 0
  m_IgnoreNormalsForChartDetection: 0
  m_ImportantGI: 0
  m_SelectedEditorRenderState: 3
  m_MinimumChartSize: 4
  m_AutoUVMaxDistance: 0.5
  m_AutoUVMaxAngle: 89
  m_LightmapParameters: {fileID: 0}
  m_SortingLayerID: 0
  m_SortingLayer: 0
  m_SortingOrder: 0
--- !u!33 &1617336295
MeshFilter:
  m_ObjectHideFlags: 0
  m_PrefabParentObject: {fileID: 3372096, guid: d9acbd4df2d313c4582b5840008bdd21,
    type: 2}
  m_PrefabInternal: {fileID: 1751167657}
  m_GameObject: {fileID: 1617336292}
  m_Mesh: {fileID: 4300000, guid: 35df4b965bd0fee47812c00526559369, type: 3}
--- !u!4 &1617336296
Transform:
  m_ObjectHideFlags: 0
  m_PrefabParentObject: {fileID: 468906, guid: d9acbd4df2d313c4582b5840008bdd21, type: 2}
  m_PrefabInternal: {fileID: 1751167657}
  m_GameObject: {fileID: 1617336292}
  m_LocalRotation: {x: -0.70706713, y: -0.007496888, z: -0.0074968096, w: 0.707067}
  m_LocalPosition: {x: -9.12, y: 0, z: 8.9}
  m_LocalScale: {x: 1, y: 1, z: 1}
  m_Children: []
  m_Father: {fileID: 0}
  m_RootOrder: 4
  m_LocalEulerAnglesHint: {x: 0, y: 0, z: 0}
--- !u!1 &1701178093
GameObject:
  m_ObjectHideFlags: 0
  m_PrefabParentObject: {fileID: 119432, guid: 59c3c4f0f9578a2459e1e239a780f559, type: 2}
  m_PrefabInternal: {fileID: 1777101030}
  serializedVersion: 5
  m_Component:
  - component: {fileID: 1701178097}
  - component: {fileID: 1701178096}
  - component: {fileID: 1701178095}
  - component: {fileID: 1701178094}
  m_Layer: 0
  m_Name: Cart_Covered1
  m_TagString: Untagged
  m_Icon: {fileID: 0}
  m_NavMeshLayer: 0
  m_StaticEditorFlags: 0
  m_IsActive: 1
--- !u!65 &1701178094
BoxCollider:
  m_ObjectHideFlags: 0
  m_PrefabParentObject: {fileID: 6554108, guid: 59c3c4f0f9578a2459e1e239a780f559,
    type: 2}
  m_PrefabInternal: {fileID: 1777101030}
  m_GameObject: {fileID: 1701178093}
  m_Material: {fileID: 0}
  m_IsTrigger: 0
  m_Enabled: 1
  serializedVersion: 2
  m_Size: {x: 1.6717263, y: 2.5897508, z: 1.8235786}
  m_Center: {x: 0, y: 0, z: 0.9117893}
--- !u!23 &1701178095
MeshRenderer:
  m_ObjectHideFlags: 0
  m_PrefabParentObject: {fileID: 2370332, guid: 59c3c4f0f9578a2459e1e239a780f559,
    type: 2}
  m_PrefabInternal: {fileID: 1777101030}
  m_GameObject: {fileID: 1701178093}
  m_Enabled: 1
  m_CastShadows: 1
  m_ReceiveShadows: 1
  m_MotionVectors: 1
  m_LightProbeUsage: 1
  m_ReflectionProbeUsage: 1
  m_Materials:
  - {fileID: 2100000, guid: 0b94cc099efbb534f87d708b8a7af35b, type: 2}
  m_StaticBatchInfo:
    firstSubMesh: 0
    subMeshCount: 0
  m_StaticBatchRoot: {fileID: 0}
  m_ProbeAnchor: {fileID: 0}
  m_LightProbeVolumeOverride: {fileID: 0}
  m_ScaleInLightmap: 1
  m_PreserveUVs: 0
  m_IgnoreNormalsForChartDetection: 0
  m_ImportantGI: 0
  m_SelectedEditorRenderState: 3
  m_MinimumChartSize: 4
  m_AutoUVMaxDistance: 0.5
  m_AutoUVMaxAngle: 89
  m_LightmapParameters: {fileID: 0}
  m_SortingLayerID: 0
  m_SortingLayer: 0
  m_SortingOrder: 0
--- !u!33 &1701178096
MeshFilter:
  m_ObjectHideFlags: 0
  m_PrefabParentObject: {fileID: 3302160, guid: 59c3c4f0f9578a2459e1e239a780f559,
    type: 2}
  m_PrefabInternal: {fileID: 1777101030}
  m_GameObject: {fileID: 1701178093}
  m_Mesh: {fileID: 4300000, guid: e2787497cad9bff47a293e187a1ebf6b, type: 3}
--- !u!4 &1701178097
Transform:
  m_ObjectHideFlags: 0
  m_PrefabParentObject: {fileID: 449080, guid: 59c3c4f0f9578a2459e1e239a780f559, type: 2}
  m_PrefabInternal: {fileID: 1777101030}
  m_GameObject: {fileID: 1701178093}
  m_LocalRotation: {x: -0.6876207, y: -0.16485706, z: -0.16485696, w: 0.68762064}
  m_LocalPosition: {x: -10.14, y: 0, z: 13.15}
  m_LocalScale: {x: 1, y: 1, z: 1}
  m_Children: []
  m_Father: {fileID: 0}
  m_RootOrder: 2
  m_LocalEulerAnglesHint: {x: 0, y: 0, z: 0}
--- !u!1001 &1751167657
Prefab:
  m_ObjectHideFlags: 0
  serializedVersion: 2
  m_Modification:
    m_TransformParent: {fileID: 0}
    m_Modifications:
    - target: {fileID: 468906, guid: d9acbd4df2d313c4582b5840008bdd21, type: 2}
      propertyPath: m_LocalPosition.x
      value: -9.11999989
      objectReference: {fileID: 0}
    - target: {fileID: 468906, guid: d9acbd4df2d313c4582b5840008bdd21, type: 2}
      propertyPath: m_LocalPosition.y
      value: 0
      objectReference: {fileID: 0}
    - target: {fileID: 468906, guid: d9acbd4df2d313c4582b5840008bdd21, type: 2}
      propertyPath: m_LocalPosition.z
      value: 8.89999962
      objectReference: {fileID: 0}
    - target: {fileID: 468906, guid: d9acbd4df2d313c4582b5840008bdd21, type: 2}
      propertyPath: m_LocalRotation.x
      value: -.707067132
      objectReference: {fileID: 0}
    - target: {fileID: 468906, guid: d9acbd4df2d313c4582b5840008bdd21, type: 2}
      propertyPath: m_LocalRotation.y
      value: -.00749688782
      objectReference: {fileID: 0}
    - target: {fileID: 468906, guid: d9acbd4df2d313c4582b5840008bdd21, type: 2}
      propertyPath: m_LocalRotation.z
      value: -.00749680959
      objectReference: {fileID: 0}
    - target: {fileID: 468906, guid: d9acbd4df2d313c4582b5840008bdd21, type: 2}
      propertyPath: m_LocalRotation.w
      value: .707067013
      objectReference: {fileID: 0}
    - target: {fileID: 468906, guid: d9acbd4df2d313c4582b5840008bdd21, type: 2}
      propertyPath: m_RootOrder
      value: 4
      objectReference: {fileID: 0}
    m_RemovedComponents: []
  m_ParentPrefab: {fileID: 100100000, guid: d9acbd4df2d313c4582b5840008bdd21, type: 2}
  m_RootGameObject: {fileID: 1617336292}
  m_IsPrefabParent: 0
--- !u!1001 &1777101030
Prefab:
  m_ObjectHideFlags: 0
  serializedVersion: 2
  m_Modification:
    m_TransformParent: {fileID: 0}
    m_Modifications:
    - target: {fileID: 449080, guid: 59c3c4f0f9578a2459e1e239a780f559, type: 2}
      propertyPath: m_LocalPosition.x
      value: -10.1400003
      objectReference: {fileID: 0}
    - target: {fileID: 449080, guid: 59c3c4f0f9578a2459e1e239a780f559, type: 2}
      propertyPath: m_LocalPosition.y
      value: 0
      objectReference: {fileID: 0}
    - target: {fileID: 449080, guid: 59c3c4f0f9578a2459e1e239a780f559, type: 2}
      propertyPath: m_LocalPosition.z
      value: 13.1499996
      objectReference: {fileID: 0}
    - target: {fileID: 449080, guid: 59c3c4f0f9578a2459e1e239a780f559, type: 2}
      propertyPath: m_LocalRotation.x
      value: -.687620699
      objectReference: {fileID: 0}
    - target: {fileID: 449080, guid: 59c3c4f0f9578a2459e1e239a780f559, type: 2}
      propertyPath: m_LocalRotation.y
      value: -.16485706
      objectReference: {fileID: 0}
    - target: {fileID: 449080, guid: 59c3c4f0f9578a2459e1e239a780f559, type: 2}
      propertyPath: m_LocalRotation.z
      value: -.164856955
      objectReference: {fileID: 0}
    - target: {fileID: 449080, guid: 59c3c4f0f9578a2459e1e239a780f559, type: 2}
      propertyPath: m_LocalRotation.w
      value: .68762064
      objectReference: {fileID: 0}
    - target: {fileID: 449080, guid: 59c3c4f0f9578a2459e1e239a780f559, type: 2}
      propertyPath: m_RootOrder
      value: 2
      objectReference: {fileID: 0}
    m_RemovedComponents: []
  m_ParentPrefab: {fileID: 100100000, guid: 59c3c4f0f9578a2459e1e239a780f559, type: 2}
  m_RootGameObject: {fileID: 1701178093}
  m_IsPrefabParent: 0
